case,Master,B0216,B0225
name, azimuth, azimuth, azimuth
F:\Data_NAS\RoutineTest\ZCAM3\GS\data_20200807_1901_2377\info.xml, 0.122000, 0.124000, -1.244000
F:\Data_NAS\RoutineTest\ZCAM3\GS\data_20200807_1901_3979\info.xml, 17.468000, 17.578000, 17.578000
F:\Data_NAS\RoutineTest\ZCAM3\GS\data_20200807_1901_5434\info.xml, 1.055000, 1.017000, 1.017000
F:\Data_NAS\RoutineTest\ZCAM3\GS\data_20200807_1902_1295\info.xml, -4.785000, -4.755000, -4.755000
F:\Data_NAS\RoutineTest\ZCAM3\GS\data_20200807_1902_2881\info.xml, 8.711000, 8.594000, 8.594000
F:\Data_NAS\RoutineTest\ZCAM3\GS\data_20200807_1902_5070\info.xml, -3.547000, -3.480000, -3.480000
F:\Data_NAS\RoutineTest\ZCAM3\GS\data_20200807_1903_1805\info.xml, 4.717000, 4.802000, 4.802000
F:\Data_NAS\RoutineTest\ZCAM3\GS\data_20200807_1903_4108\info.xml, 11.819000, 11.743000, 11.743000
F:\Data_NAS\RoutineTest\ZCAM3\GS\data_20200807_1904_0235\info.xml, 8.746000, 8.762000, 8.762000
F:\Data_NAS\RoutineTest\ZCAM3\GS\data_20200807_1904_2339\info.xml, 9.463000, 9.722000, 9.606000
F:\Data_NAS\RoutineTest\ZCAM3\GS\data_20200807_1904_4661\info.xml, 10.287000, 10.273000, 10.273000
F:\Data_NAS\RoutineTest\ZCAM3\GS\data_20200807_1905_1161\info.xml, 9.624000, 9.708000, 9.708000
F:\Data_NAS\RoutineTest\ZCAM3\GS\data_20200807_1905_3644\info.xml, 8.141000, 8.125000, 8.125000
F:\Data_NAS\RoutineTest\ZCAM3\GS\data_20200807_1906_0077\info.xml, 5.003000, 4.834000, 4.834000
F:\Data_NAS\RoutineTest\ZCAM3\GS\data_20200807_1906_2439\info.xml, 6.477000, 6.467000, 6.467000
F:\Data_NAS\RoutineTest\ZCAM3\GS\data_20200807_1906_4807\info.xml, 20.876000, 20.796000, 20.871000
F:\Data_NAS\RoutineTest\ZCAM3\GS\data_20200807_1907_1257\info.xml, 7.327000, 7.337000, 7.337000
F:\Data_NAS\RoutineTest\ZCAM3\GS\data_20200807_1907_3422\info.xml, 9.608000, 9.617000, 9.617000
F:\Data_NAS\RoutineTest\ZCAM3\GS\data_20200807_1908_0226\info.xml, 7.117000, 7.096000, 7.096000
F:\Data_NAS\RoutineTest\ZCAM3\GS\data_20200807_1908_2537\info.xml, 4.224000, 4.102000, 4.102000
F:\Data_NAS\RoutineTest\ZCAM3\GS\data_20200807_1908_5443\info.xml, 3.605000, 3.601000, 3.601000
F:\Data_NAS\RoutineTest\ZCAM3\GS\data_20200807_1909_1991\info.xml, 9.006000, 8.977000, 8.977000
F:\Data_NAS\RoutineTest\ZCAM3\GS\data_20200807_1909_5653\info.xml, 7.269000, 7.217000, 7.217000
F:\Data_NAS\RoutineTest\ZCAM3\GS\data_20200807_1910_2591\info.xml, 6.396000, 6.290000, 6.290000
F:\Data_NAS\RoutineTest\ZCAM3\GS\data_20200807_1910_4972\info.xml, 7.655000, 7.938000, 7.938000
F:\Data_NAS\RoutineTest\ZCAM3\GS\data_20200811_1653_2348\info.xml, 6.030000, 6.036000, 6.036000
F:\Data_NAS\RoutineTest\ZCAM3\GS\data_20200811_1653_4439\info.xml, 2.640000, 2.514000, 2.514000
F:\Data_NAS\RoutineTest\ZCAM3\GS\data_20200811_1654_0703\info.xml, 2.475000, 2.614000, 2.614000
F:\Data_NAS\RoutineTest\ZCAM3\GS\data_20200811_1654_3061\info.xml, 2.941000, 2.962000, 2.962000
F:\Data_NAS\RoutineTest\ZCAM3\GS\data_20200811_1654_5287\info.xml, 1.730000, 1.851000, 1.851000
F:\Data_NAS\RoutineTest\ZCAM3\GS\data_20200811_1655_1549\info.xml, 3.917000, 4.002000, 4.002000
F:\Data_NAS\RoutineTest\ZCAM3\GS\data_20200811_1655_4588\info.xml, -0.726000, -0.810000, -0.810000
F:\Data_NAS\RoutineTest\ZCAM3\GS\data_20200811_1656_1367\info.xml, 1.540000, 1.421000, 1.421000
F:\Data_NAS\RoutineTest\ZCAM3\GS\data_20200811_1656_3847\info.xml, 5.594000, 5.430000, 5.430000
F:\Data_NAS\RoutineTest\ZCAM3\GS\data_20200811_1657_0259\info.xml, 3.698000, 3.800000, 3.800000
F:\Data_NAS\RoutineTest\ZCAM3\GS\data_20200811_1657_2577\info.xml, 3.279000, 3.278000, 3.278000
F:\Data_NAS\RoutineTest\ZCAM3\GS\data_20200811_1657_5156\info.xml, 6.683000, 6.605000, 6.605000
F:\Data_NAS\RoutineTest\ZCAM3\GS\data_20200811_1658_2688\info.xml, 2.949000, 2.992000, 2.992000
F:\Data_NAS\RoutineTest\ZCAM3\GS\data_20200811_1658_5192\info.xml, 2.082000, 1.939000, 1.939000
F:\Data_NAS\RoutineTest\ZCAM3\GS\data_20200811_1659_1918\info.xml, 7.824000, 7.779000, 7.779000
F:\Data_NAS\RoutineTest\ZCAM3\GS\data_20200811_1659_4573\info.xml, 2.137000, 2.264000, 2.264000
F:\Data_NAS\RoutineTest\ZCAM3\GS\data_20200811_1700_1063\info.xml, 4.117000, 4.252000, 4.252000
F:\Data_NAS\RoutineTest\ZCAM3\GS\data_20200811_1700_3673\info.xml, 6.665000, 6.758000, 6.758000
F:\Data_NAS\RoutineTest\ZCAM3\GS\data_20200811_1701_0866\info.xml, 0.854000, 0.727000, 0.727000
F:\Data_NAS\RoutineTest\ZCAM3\GS\data_20200811_1701_3682\info.xml, 1.609000, 1.578000, 1.578000
F:\Data_NAS\RoutineTest\ZCAM3\GS\data_20200811_1702_0918\info.xml, 2.746000, 2.724000, 2.724000
F:\Data_NAS\RoutineTest\ZCAM3\GS\data_20200811_1702_4294\info.xml, 4.889000, 4.886000, 4.886000
F:\Data_NAS\RoutineTest\ZCAM3\GS\data_20200811_1703_0690\info.xml, 1.863000, 1.772000, 1.772000
F:\Data_NAS\RoutineTest\ZCAM3\GS\data_20200811_1703_3384\info.xml, 2.773000, 2.874000, 2.874000
F:\Data_NAS\RoutineTest\ZCAM3\GS\data_20200811_1707_1348\info.xml, -9.150000, -9.147000, -9.147000
F:\Data_NAS\RoutineTest\ZCAM3\GS\data_20200811_1707_5075\info.xml, -3.098000, -3.214000, -3.214000
F:\Data_NAS\RoutineTest\ZCAM3\GS\data_20200811_1708_2619\info.xml, -0.320000, -0.256000, -0.177000
F:\Data_NAS\RoutineTest\ZCAM3\GS\data_20200811_1708_5158\info.xml, -2.116000, -2.127000, -2.127000
F:\Data_NAS\RoutineTest\ZCAM3\GS\data_20200811_1709_2906\info.xml, -1.000000, -1.229000, -1.229000
F:\Data_NAS\RoutineTest\ZCAM3\GS\data_20200811_1710_3210\info.xml, -0.195000, -0.187000, -0.187000
F:\Data_NAS\RoutineTest\ZCAM3\GS\data_20200811_1711_0962\info.xml, -2.494000, -2.526000, -2.526000
F:\Data_NAS\RoutineTest\ZCAM3\GS\data_20200811_1712_3478\info.xml, -0.871000, -0.992000, -0.992000
F:\Data_NAS\RoutineTest\ZCAM3\GS\data_20200811_1713_0285\info.xml, -7.138000, -7.108000, -7.108000
F:\Data_NAS\RoutineTest\ZCAM3\GS\data_20200811_1713_1670\info.xml, 2.570000, 2.569000, 2.569000
F:\Data_NAS\RoutineTest\ZCAM3\GS\data_20200811_1713_5118\info.xml, -3.330000, -3.379000, -3.379000
F:\Data_NAS\RoutineTest\ZCAM3\GS\data_20200811_1714_2889\info.xml, -4.391000, -4.310000, -4.310000
F:\Data_NAS\RoutineTest\ZCAM3\GS\data_20200811_1714_4764\info.xml, -3.313000, -3.319000, -3.319000
F:\Data_NAS\RoutineTest\ZCAM3\GS\data_20200811_1721_0068\info.xml, -3.025000, -2.977000, -2.977000
F:\Data_NAS\RoutineTest\ZCAM3\GS\data_20200811_1722_4688\info.xml, -1.765000, -1.753000, -1.753000
F:\Data_NAS\RoutineTest\ZCAM3\GS\data_20200811_1723_1080\info.xml, -1.740000, -1.771000, -1.772000
F:\Data_NAS\RoutineTest\ZCAM3\GS\data_20200811_1723_3607\info.xml, -3.359000, -3.492000, -3.492000
F:\Data_NAS\RoutineTest\ZCAM3\GS\data_20200811_1723_5932\info.xml, 5.952000, 6.148000, 6.196000
F:\Data_NAS\RoutineTest\ZCAM3\GS\data_20200811_1724_1504\info.xml, -4.816000, -4.771000, -4.771000
F:\Data_NAS\RoutineTest\ZCAM3\GS\data_20200811_1724_3868\info.xml, 3.406000, 3.403000, 3.403000
F:\Data_NAS\RoutineTest\ZCAM3\GS\data_20200811_1725_0186\info.xml, 3.457000, 3.434000, 3.434000
F:\Data_NAS\RoutineTest\ZCAM3\GS\data_20200811_1725_3683\info.xml, -5.246000, -5.289000, -5.289000
F:\Data_NAS\RoutineTest\ZCAM3\GS\data_20200811_1725_5320\info.xml, 5.255000, 5.256000, 5.256000
F:\Data_NAS\RoutineTest\ZCAM3\GS\data_20200811_1726_1647\info.xml, 3.597000, 3.700000, 3.700000
F:\Data_NAS\RoutineTest\ZCAM3\GS\data_20200811_1726_3574\info.xml, -0.137000, 0.062000, 0.062000
F:\Data_NAS\RoutineTest\ZCAM3\GS\data_20200811_1727_0625\info.xml, -0.049000, 0.124000, 0.124000
F:\Data_NAS\RoutineTest\ZCAM3\GS\data_20200811_1727_4199\info.xml, -1.626000, -1.508000, -1.508000
F:\Data_NAS\RoutineTest\ZCAM3\GS\data_20200811_1728_2529\info.xml, -1.297000, -1.116000, -1.116000
F:\Data_NAS\RoutineTest\ZCAM3\GS\data_20200811_1728_5786\info.xml, -2.143000, -2.200000, -2.200000
F:\Data_NAS\RoutineTest\ZCAM3\GS\data_20200811_1729_3890\info.xml, -1.973000, -1.888000, -1.888000
F:\Data_NAS\RoutineTest\ZCAM3\GS\data_20200811_1731_1709\info.xml, -1.413000, -1.369000, -1.369000
F:\Data_NAS\RoutineTest\ZCAM3\GS\data_20200811_1731_4460\info.xml, 0.907000, 0.962000, 0.962000
F:\Data_NAS\RoutineTest\ZCAM3\GS\data_20200811_1731_5755\info.xml, 1.637000, 1.806000, 1.806000
F:\Data_NAS\RoutineTest\ZCAM3\GS\data_20200811_1732_5109\info.xml, 4.305000, 4.342000, 4.342000
F:\Data_NAS\RoutineTest\ZCAM3\GS\data_20200814_1514_4490\info.xml, 0.540000, 0.577000, 0.577000
F:\Data_NAS\RoutineTest\ZCAM3\GS\data_20200814_1515_1844\info.xml, 2.352000, 2.342000, 2.342000
F:\Data_NAS\RoutineTest\ZCAM3\GS\data_20200814_1515_3715\info.xml, 3.632000, 3.626000, 3.626000
F:\Data_NAS\RoutineTest\ZCAM3\GS\data_20200814_1515_5643\info.xml, -2.112000, -2.092000, -2.092000
F:\Data_NAS\RoutineTest\ZCAM3\GS\data_20200814_1516_4854\info.xml, 2.806000, 2.950000, 2.808000
F:\Data_NAS\RoutineTest\ZCAM3\GS\data_20200814_1517_0532\info.xml, 3.435000, 3.237000, 3.237000
F:\Data_NAS\RoutineTest\ZCAM3\GS\data_20200814_1517_2709\info.xml, 1.819000, 1.972000, 1.972000
F:\Data_NAS\RoutineTest\ZCAM3\GS\data_20200814_1517_4328\info.xml, -0.757000, -0.524000, -0.524000
F:\Data_NAS\RoutineTest\ZCAM3\GS\data_20200814_1518_0397\info.xml, 3.923000, 3.743000, 3.743000
F:\Data_NAS\RoutineTest\ZCAM3\GS\data_20200814_1519_3934\info.xml, 2.090000, 1.846000, 1.846000
F:\Data_NAS\RoutineTest\ZCAM3\GS\data_20200814_1519_5871\info.xml, 5.733000, 5.593000, 5.593000
F:\Data_NAS\RoutineTest\ZCAM3\GS\data_20200814_1520_1881\info.xml, 0.351000, 0.360000, 0.360000
F:\Data_NAS\RoutineTest\ZCAM3\GS\data_20200814_1520_3582\info.xml, 2.604000, 3.104000, 3.104000
F:\Data_NAS\RoutineTest\ZCAM3\GS\data_20200814_1520_5310\info.xml, 4.473000, 4.481000, 4.481000
F:\Data_NAS\RoutineTest\ZCAM3\GS\data_20200814_1521_1181\info.xml, 2.424000, 2.571000, 2.409000
F:\Data_NAS\RoutineTest\ZCAM3\GS\data_20200814_1521_2880\info.xml, 0.952000, 0.971000, 1.005000
F:\Data_NAS\RoutineTest\ZCAM3\GS\data_20200820_0731_1010\info.xml, 0.000000, -0.710000, -0.710000
F:\Data_NAS\RoutineTest\ZCAM3\GS\data_20200820_0731_2176\info.xml, -14.459000, -14.573000, -14.195000
F:\Data_NAS\RoutineTest\ZCAM3\GS\data_20200820_0731_3673\info.xml, -9.672000, -9.666000, -9.666000
F:\Data_NAS\RoutineTest\ZCAM3\GS\data_20200820_0731_4768\info.xml, -8.697000, -8.237000, -8.225000
F:\Data_NAS\RoutineTest\ZCAM3\GS\data_20200820_0732_1194\info.xml, -4.082000, -4.207000, -4.207000
F:\Data_NAS\RoutineTest\ZCAM3\GS\data_20200820_0732_2605\info.xml, 6.075000, 6.127000, 6.083000
F:\Data_NAS\RoutineTest\ZCAM3\GS\data_20200820_0732_4337\info.xml, 1.873000, 1.737000, 1.775000
F:\Data_NAS\RoutineTest\ZCAM3\GS\data_20200820_0733_4803\info.xml, 4.878000, 0.000000, 4.687000
F:\Data_NAS\RoutineTest\ZCAM3\GS\data_20200820_0734_1424\info.xml, 0.371000, 0.453000, 0.506000
F:\Data_NAS\RoutineTest\ZCAM3\GS\data_20200820_0734_5403\info.xml, -1.165000, -1.439000, -1.453000
F:\Data_NAS\RoutineTest\ZCAM3\GS\data_20200820_0735_1606\info.xml, 3.490000, 3.337000, 3.337000
F:\Data_NAS\RoutineTest\ZCAM3\GS\data_20200820_0735_3451\info.xml, -6.244000, -6.103000, -6.090000
F:\Data_NAS\RoutineTest\ZCAM3\GS\data_20200820_0735_5328\info.xml, -2.287000, 0.000000, -2.099000
F:\Data_NAS\RoutineTest\ZCAM3\GS\data_20200820_0736_0801\info.xml, -19.136000, -18.574000, -18.574000
F:\Data_NAS\RoutineTest\ZCAM3\GS\data_20200820_0736_2048\info.xml, -1.035000, -1.110000, -1.020000
F:\Data_NAS\RoutineTest\ZCAM3\GS\data_20200820_0736_4119\info.xml, -4.166000, -4.387000, -4.418000
F:\Data_NAS\RoutineTest\ZCAM3\GS\data_20200820_0737_0341\info.xml, -1.256000, -1.102000, -1.102000
F:\Data_NAS\RoutineTest\ZCAM3\GS\data_20200820_0737_2573\info.xml, -5.904000, -5.739000, -5.753000
F:\Data_NAS\RoutineTest\ZCAM3\GS\data_20200820_0738_0107\info.xml, -2.261000, -2.074000, -2.080000
F:\Data_NAS\RoutineTest\ZCAM3\GS\data_20200820_0738_2150\info.xml, -3.715000, -3.409000, -3.454000
F:\Data_NAS\RoutineTest\ZCAM3\GS\data_20200820_0738_4019\info.xml, -3.408000, -3.292000, -3.252000
F:\Data_NAS\RoutineTest\ZCAM3\GS\data_20200820_0739_2233\info.xml, -0.242000, -0.162000, -0.162000
F:\Data_NAS\RoutineTest\ZCAM3\GS\data_20200820_0739_4657\info.xml, -0.027000, 0.238000, 0.254000
F:\Data_NAS\RoutineTest\ZCAM3\GS\data_20200820_0740_0843\info.xml, 2.053000, 0.000000, 2.144000
F:\Data_NAS\RoutineTest\ZCAM3\GS\data_20200820_0741_0771\info.xml, 2.202000, 0.235000, 2.790000
F:\Data_NAS\RoutineTest\ZCAM3\GS\data_20200820_0741_5548\info.xml, 5.298000, -5.810000, 0.000000
F:\Data_NAS\RoutineTest\ZCAM3\GS\data_20200820_0742_1725\info.xml, -4.016000, -4.097000, -4.162000
F:\Data_NAS\RoutineTest\ZCAM3\GS\data_20200820_0743_1478\info.xml, 0.000000, 3.375000, 0.000000
F:\Data_NAS\RoutineTest\ZCAM3\GS\data_20200820_0743_3350\info.xml, 0.000000, -5.472000, 0.000000
F:\Data_NAS\RoutineTest\ZCAM3\GS\data_20200820_0744_0245\info.xml, 0.000000, -1.847000, -1.902000
F:\Data_NAS\RoutineTest\ZCAM3\GS\data_20200820_0745_0148\info.xml, 0.924000, 0.880000, 0.864000
F:\Data_NAS\RoutineTest\ZCAM3\GS\data_20200820_0745_3938\info.xml, 3.534000, 3.603000, 3.583000
F:\Data_NAS\RoutineTest\ZCAM3\GS\data_20200820_0746_3901\info.xml, 0.000000, -1.852000, -1.852000
F:\Data_NAS\RoutineTest\ZCAM3\GS\data_20200820_0748_4066\info.xml, 0.000000, 0.000000, 5.065000
F:\Data_NAS\RoutineTest\ZCAM3\GS\data_20200820_0749_2882\info.xml, 2.157000, 0.000000, 2.304000
F:\Data_NAS\RoutineTest\ZCAM3\GS\data_20200820_0750_0530\info.xml, 1.283000, 1.431000, 1.375000
F:\Data_NAS\RoutineTest\ZCAM3\GS\data_20200820_0750_4604\info.xml, -0.928000, 0.000000, -1.070000
F:\Data_NAS\RoutineTest\ZCAM3\GS\data_20200820_0751_1874\info.xml, -2.743000, -3.052000, -3.052000
F:\Data_NAS\RoutineTest\ZCAM3\GS\data_20200820_0752_0685\info.xml, 0.000000, -4.400000, -4.314000
F:\Data_NAS\RoutineTest\ZCAM3\GS\data_20200820_0752_5327\info.xml, -4.223000, 0.000000, -4.221000
F:\Data_NAS\RoutineTest\ZCAM3\GS\data_20200820_0753_1357\info.xml, -0.725000, 0.505000, 0.000000
F:\Data_NAS\RoutineTest\ZCAM3\GS\data_20200820_0753_2910\info.xml, 0.000000, 0.000000, 0.000000
F:\Data_NAS\RoutineTest\ZCAM3\GS\data_20200820_0753_4250\info.xml, 0.000000, 0.000000, 0.000000
F:\Data_NAS\RoutineTest\ZCAM3\GS\data_20200820_0753_5592\info.xml, 0.000000, -5.545000, -7.331000
F:\Data_NAS\RoutineTest\ZCAM3\GS\data_20200820_0754_0877\info.xml, 1.038000, 0.000000, 0.925000
F:\Data_NAS\RoutineTest\ZCAM3\GS\data_20200820_0754_5088\info.xml, -1.502000, -1.531000, -1.396000
F:\Data_NAS\RoutineTest\ZCAM3\GS\data_20200820_0755_0310\info.xml, -3.231000, -3.236000, -3.222000
F:\Data_NAS\RoutineTest\ZCAM3\GS\data_20200820_0755_1891\info.xml, 3.258000, 3.288000, 3.288000
F:\Data_NAS\RoutineTest\ZCAM3\GS\data_20200820_0755_3884\info.xml, -4.142000, -4.117000, -4.152000
F:\Data_NAS\RoutineTest\ZCAM3\GS\data_20200820_0755_5367\info.xml, -4.104000, -4.217000, -4.217000
F:\Data_NAS\RoutineTest\ZCAM3\GS\data_20200820_0756_0642\info.xml, 0.462000, 0.495000, 0.495000
F:\Data_NAS\RoutineTest\ZCAM3\GS\data_20200820_0758_2268\info.xml, -1.652000, -1.433000, -1.433000
F:\Data_NAS\RoutineTest\ZCAM3\GS\data_20200820_0758_3531\info.xml, -0.346000, 0.000000, -0.643000
F:\Data_NAS\RoutineTest\ZCAM3\GS\data_20200820_0758_4745\info.xml, -0.840000, -0.677000, 0.000000
F:\Data_NAS\RoutineTest\ZCAM3\GS\data_20200820_0758_5972\info.xml, -0.779000, -0.301000, -0.296000
F:\Data_NAS\RoutineTest\ZCAM3\GS\data_20200820_0759_1171\info.xml, -4.190000, 0.000000, -4.040000
F:\Data_NAS\RoutineTest\ZCAM3\GS\data_20200820_0759_3607\info.xml, -2.065000, 0.000000, -1.927000
F:\Data_NAS\RoutineTest\ZCAM3\GS\data_20200820_0759_5503\info.xml, -4.241000, -4.088000, -4.088000
F:\Data_NAS\RoutineTest\ZCAM3\GS\data_20200820_0800_0806\info.xml, -2.199000, 0.276000, -2.100000
F:\Data_NAS\RoutineTest\ZCAM3\GS\data_20200820_0800_4980\info.xml, 0.618000, 0.825000, 0.861000
F:\Data_NAS\RoutineTest\ZCAM3\GS\data_20200820_0801_1381\info.xml, 0.212000, 0.254000, 0.205000
F:\Data_NAS\RoutineTest\ZCAM3\GS\data_20200820_0801_3534\info.xml, -2.033000, -1.730000, -1.635000
F:\Data_NAS\RoutineTest\ZCAM3\GS\data_20200820_0801_5061\info.xml, 2.768000, 2.266000, 2.315000
F:\Data_NAS\RoutineTest\ZCAM3\GS\data_20200820_0802_1501\info.xml, -0.543000, -1.771000, 0.000000
F:\Data_NAS\RoutineTest\ZCAM3\GS\data_20200820_0802_3808\info.xml, 1.274000, 0.000000, 1.127000
F:\Data_NAS\RoutineTest\ZCAM3\GS\data_20200820_0802_5777\info.xml, -0.773000, -1.588000, -1.597000
F:\Data_NAS\RoutineTest\ZCAM3\GS\data_20200820_0803_1405\info.xml, 2.171000, 2.331000, 2.385000
F:\Data_NAS\RoutineTest\ZCAM3\GS\data_20200820_0803_4888\info.xml, -6.267000, -6.294000, -6.320000
F:\Data_NAS\RoutineTest\ZCAM3\GS\data_20200820_0804_1294\info.xml, -1.681000, -0.873000, -0.903000
F:\Data_NAS\RoutineTest\ZCAM3\GS\data_20200820_0908_5172\info.xml, -5.459000, -5.222000, -5.222000
F:\Data_NAS\RoutineTest\ZCAM3\GS\data_20200820_0909_0564\info.xml, 2.105000, 1.970000, 1.938000
F:\Data_NAS\RoutineTest\ZCAM3\GS\data_20200820_0909_2695\info.xml, 0.000000, -0.027000, 0.000000
F:\Data_NAS\RoutineTest\ZCAM3\GS\data_20200820_0910_1778\info.xml, 0.562000, 0.306000, 0.226000
F:\Data_NAS\RoutineTest\ZCAM3\GS\data_20200820_0910_3744\info.xml, 1.301000, 1.266000, 1.320000
F:\Data_NAS\RoutineTest\ZCAM3\GS\data_20200820_0910_5320\info.xml, 0.337000, 0.168000, 0.159000
F:\Data_NAS\RoutineTest\ZCAM3\GS\data_20200820_0911_0916\info.xml, 0.064000, 0.017000, 0.009000
F:\Data_NAS\RoutineTest\ZCAM3\GS\data_20200820_0911_4632\info.xml, 2.091000, 2.182000, 2.182000
F:\Data_NAS\RoutineTest\ZCAM3\GS\data_20200820_0912_1313\info.xml, -2.566000, -2.548000, -2.513000
F:\Data_NAS\RoutineTest\ZCAM3\GS\data_20200820_0912_3534\info.xml, -1.371000, -1.425000, -1.425000
F:\Data_NAS\RoutineTest\ZCAM3\GS\data_20200820_0913_1105\info.xml, 3.385000, 3.305000, 3.329000
F:\Data_NAS\RoutineTest\ZCAM3\GS\data_20200820_0913_4836\info.xml, 0.000000, -3.298000, -3.533000
F:\Data_NAS\RoutineTest\ZCAM3\GS\data_20200820_0914_4521\info.xml, -0.190000, -0.407000, -0.301000
F:\Data_NAS\RoutineTest\ZCAM3\GS\data_20200820_0915_0678\info.xml, -3.917000, -3.798000, -3.835000
F:\Data_NAS\RoutineTest\ZCAM3\GS\data_20200820_0915_3438\info.xml, -5.254000, -5.038000, -5.107000
F:\Data_NAS\RoutineTest\ZCAM3\GS\data_20200820_0916_0902\info.xml, -2.913000, -2.991000, -3.013000
F:\Data_NAS\RoutineTest\ZCAM3\GS\data_20200820_0916_2772\info.xml, -1.726000, -1.736000, -1.736000
F:\Data_NAS\RoutineTest\ZCAM3\GS\data_20200820_0916_5234\info.xml, 3.164000, 3.170000, 3.043000
F:\Data_NAS\RoutineTest\ZCAM3\GS\data_20200820_0917_0655\info.xml, 6.165000, 0.000000, 6.181000
F:\Data_NAS\RoutineTest\ZCAM3\GS\data_20200820_0917_2487\info.xml, -1.488000, -1.512000, -1.503000
F:\Data_NAS\RoutineTest\ZCAM3\GS\data_20200820_0918_1931\info.xml, -6.519000, -6.847000, -6.847000
F:\Data_NAS\RoutineTest\ZCAM3\GS\data_20200820_0918_3983\info.xml, -7.772000, -7.503000, -7.514000
F:\Data_NAS\RoutineTest\ZCAM3\GS\data_20200820_0920_0556\info.xml, -5.868000, -6.118000, 0.000000
F:\Data_NAS\RoutineTest\ZCAM3\GS\data_20200820_0921_1181\info.xml, -8.627000, -8.844000, -8.838000
F:\Data_NAS\RoutineTest\ZCAM3\GS\data_20200820_0921_4437\info.xml, -0.745000, 0.000000, -0.816000
F:\Data_NAS\RoutineTest\ZCAM3\GS\data_20200820_0922_0727\info.xml, -5.312000, -5.539000, -5.489000
F:\Data_NAS\RoutineTest\ZCAM3\GS\data_20200820_0922_5446\info.xml, -4.982000, -5.686000, -4.968000
F:\Data_NAS\RoutineTest\ZCAM3\GS\data_20200820_0923_2449\info.xml, -4.237000, -4.263000, -4.321000
F:\Data_NAS\RoutineTest\ZCAM3\GS\data_20200820_0923_5184\info.xml, -3.727000, 0.000000, -8.431000
F:\Data_NAS\RoutineTest\ZCAM3\GS\data_20200820_0924_4008\info.xml, -5.616000, -5.516000, -5.572000
F:\Data_NAS\RoutineTest\ZCAM3\GS\data_20200820_0925_1032\info.xml, 0.000000, -7.535000, 0.000000
F:\Data_NAS\RoutineTest\ZCAM3\GS\data_20200820_0925_2890\info.xml, -8.819000, -8.886000, -8.894000
F:\Data_NAS\RoutineTest\ZCAM3\GS\data_20200820_0925_5507\info.xml, -4.534000, -4.731000, 0.000000
F:\Data_NAS\RoutineTest\ZCAM3\GS\data_20200820_0926_5640\info.xml, -6.634000, -6.519000, -6.486000
F:\Data_NAS\RoutineTest\ZCAM3\GS\data_20200820_0927_1919\info.xml, -4.308000, -4.395000, -4.397000
F:\Data_NAS\RoutineTest\ZCAM3\GS\data_20200820_0927_4067\info.xml, -4.649000, 0.000000, -4.371000
F:\Data_NAS\RoutineTest\ZCAM3\GS\data_20200820_0928_0232\info.xml, -6.552000, -6.379000, -6.379000
F:\Data_NAS\RoutineTest\ZCAM3\GS\data_20200820_0928_3282\info.xml, -7.733000, -8.001000, -8.001000
F:\Data_NAS\RoutineTest\ZCAM3\GS\data_20200820_0930_1079\info.xml, -4.748000, -5.182000, -5.139000
F:\Data_NAS\RoutineTest\ZCAM3\GS\data_20200820_0930_2742\info.xml, -7.133000, -7.552000, -7.537000
F:\Data_NAS\RoutineTest\ZCAM3\GS\data_20200820_0930_4322\info.xml, -4.732000, -5.233000, -5.196000
F:\Data_NAS\RoutineTest\ZCAM3\GS\data_20200820_0931_1211\info.xml, -4.627000, 0.000000, -4.772000
F:\Data_NAS\RoutineTest\ZCAM3\GS\data_20200820_0931_3045\info.xml, -8.753000, -8.057000, -8.819000
F:\Data_NAS\RoutineTest\ZCAM3\GS\data_20200820_0931_4839\info.xml, -5.759000, -5.392000, -5.392000
F:\Data_NAS\RoutineTest\ZCAM3\GS\data_20200820_0932_1467\info.xml, -7.158000, -7.362000, -7.363000
F:\Data_NAS\RoutineTest\ZCAM3\GS\data_20200820_0932_3216\info.xml, -5.108000, -4.941000, -4.913000
F:\Data_NAS\RoutineTest\ZCAM3\GS\data_20200820_0932_5497\info.xml, -5.586000, -5.926000, -5.927000
F:\Data_NAS\RoutineTest\ZCAM3\GS\data_20200820_0933_1756\info.xml, -15.645000, -15.193000, -15.193000
F:\Data_NAS\RoutineTest\ZCAM3\GS\data_20200820_0933_3656\info.xml, -4.845000, -4.614000, -4.616000
F:\Data_NAS\RoutineTest\ZCAM3\GS\data_20200820_0934_0697\info.xml, -9.485000, -8.244000, -9.138000
F:\Data_NAS\RoutineTest\ZCAM3\GS\data_20200820_0934_3049\info.xml, 0.000000, 0.000000, 0.000000
F:\Data_NAS\RoutineTest\ZCAM3\GS\data_20200820_0934_4964\info.xml, -5.392000, -5.384000, -6.075000
F:\Data_NAS\RoutineTest\ZCAM3\GS\data_20200820_0935_1220\info.xml, -9.008000, -8.838000, -8.857000
F:\Data_NAS\RoutineTest\ZCAM3\GS\data_20200820_0936_4249\info.xml, -2.922000, -3.434000, -3.472000
F:\Data_NAS\RoutineTest\ZCAM3\GS\data_20200820_0937_4668\info.xml, -5.170000, -5.731000, -5.736000
F:\Data_NAS\RoutineTest\ZCAM3\GS\data_20200820_0938_0954\info.xml, 0.000000, -14.941000, -13.749000
F:\Data_NAS\RoutineTest\ZCAM3\GS\data_20200820_0938_2896\info.xml, -2.413000, -1.815000, -1.746000
F:\Data_NAS\RoutineTest\ZCAM3\GS\data_20200820_0938_5453\info.xml, -9.625000, -8.791000, -8.797000
F:\Data_NAS\RoutineTest\ZCAM3\GS\data_20200820_0939_1254\info.xml, -2.720000, -2.930000, -2.856000
F:\Data_NAS\RoutineTest\ZCAM3\GS\data_20200820_0939_3574\info.xml, -2.920000, -2.704000, -2.707000
F:\Data_NAS\RoutineTest\ZCAM3\GS\data_20200820_0940_0340\info.xml, -4.391000, -4.855000, -4.836000
F:\Data_NAS\RoutineTest\ZCAM3\GS\data_20200820_0940_3221\info.xml, -1.893000, -2.016000, -2.012000
F:\Data_NAS\RoutineTest\ZCAM3\GS\data_20200820_0940_5313\info.xml, -2.822000, -3.112000, -3.152000
F:\Data_NAS\RoutineTest\ZCAM3\GS\data_20200820_0941_4023\info.xml, -4.429000, -5.335000, -5.335000
F:\Data_NAS\RoutineTest\ZCAM3\GS\data_20200820_0942_0638\info.xml, -3.552000, 0.000000, -3.616000
F:\Data_NAS\RoutineTest\ZCAM3\GS\data_20200820_0942_2558\info.xml, -6.037000, -6.047000, -6.013000
F:\Data_NAS\RoutineTest\ZCAM3\GS\data_20200820_0942_5576\info.xml, -6.330000, -6.884000, -7.807000
F:\Data_NAS\RoutineTest\ZCAM3\GS\data_20200820_0944_2168\info.xml, -0.479000, 0.000000, 0.000000
F:\Data_NAS\RoutineTest\ZCAM3\GS\data_20200820_0944_4496\info.xml, -5.478000, -4.139000, -5.406000
F:\Data_NAS\RoutineTest\ZCAM3\GS\data_20200820_0945_0181\info.xml, -2.996000, 0.000000, -2.953000
F:\Data_NAS\RoutineTest\ZCAM3\GS\data_20200820_0945_2763\info.xml, -1.789000, -1.830000, -1.837000
F:\Data_NAS\RoutineTest\ZCAM3\GS\data_20200820_0945_4823\info.xml, -2.487000, -2.786000, -2.762000
F:\Data_NAS\RoutineTest\ZCAM3\GS\data_20200820_0946_0342\info.xml, -2.211000, -2.037000, -2.116000
F:\Data_NAS\RoutineTest\ZCAM3\GS\data_20200820_0946_1845\info.xml, -3.918000, -4.167000, -4.178000
F:\Data_NAS\RoutineTest\ZCAM3\GS\data_20200820_0948_3393\info.xml, 0.000000, -9.244000, -8.181000
F:\Data_NAS\RoutineTest\ZCAM3\GS\data_20200820_0948_5145\info.xml, -1.834000, -1.996000, -1.999000
F:\Data_NAS\RoutineTest\ZCAM3\GS\data_20200820_0949_0947\info.xml, -3.811000, -2.345000, -3.941000
F:\Data_NAS\RoutineTest\ZCAM3\GS\data_20200820_0949_5023\info.xml, 0.000000, 0.000000, 0.000000
F:\Data_NAS\RoutineTest\ZCAM3\GS\data_20200820_0950_1133\info.xml, 0.000000, 0.000000, 2.665000
F:\Data_NAS\RoutineTest\ZCAM3\GS\data_20200820_0950_3095\info.xml, -3.239000, -1.775000, -1.775000
F:\Data_NAS\RoutineTest\ZCAM3\GS\data_20200820_0954_2197\info.xml, -1.896000, -2.044000, -2.044000
F:\Data_NAS\RoutineTest\ZCAM3\GS\data_20200820_0955_0418\info.xml, 3.495000, 3.378000, 3.378000
F:\Data_NAS\RoutineTest\ZCAM3\GS\data_20200820_0955_2457\info.xml, -6.804000, -6.602000, -6.602000
F:\Data_NAS\RoutineTest\ZCAM3\GS\data_20200820_0955_3733\info.xml, 3.356000, 3.434000, 3.453000
F:\Data_NAS\RoutineTest\ZCAM3\GS\data_20200820_0955_5542\info.xml, -5.217000, -5.011000, -5.011000
F:\Data_NAS\RoutineTest\ZCAM3\GS\data_20200820_0956_1144\info.xml, 2.266000, 2.199000, 2.206000
F:\Data_NAS\RoutineTest\ZCAM3\GS\data_20200820_0956_3798\info.xml, 3.603000, 3.562000, 3.547000
F:\Data_NAS\RoutineTest\ZCAM3\GS\data_20200820_0956_5408\info.xml, 2.402000, 2.318000, 2.256000
F:\Data_NAS\RoutineTest\ZCAM3\GS\data_20200820_0957_1158\info.xml, -0.572000, -0.368000, -0.530000
F:\Data_NAS\RoutineTest\ZCAM3\GS\data_20200820_0957_3909\info.xml, 2.754000, 2.645000, 2.627000
F:\Data_NAS\RoutineTest\ZCAM3\GS\data_20200820_0957_5784\info.xml, 0.000000, 3.125000, 0.000000
F:\Data_NAS\RoutineTest\ZCAM3\GS\data_20200820_0958_1274\info.xml, -1.140000, -0.898000, -0.898000
F:\Data_NAS\RoutineTest\ZCAM3\GS\data_20200820_0958_3202\info.xml, 3.128000, 2.948000, 2.828000
F:\Data_NAS\RoutineTest\ZCAM3\GS\data_20200820_0958_5034\info.xml, -1.561000, -1.416000, -1.401000
F:\Data_NAS\RoutineTest\ZCAM3\GS\data_20200820_0959_0451\info.xml, -0.075000, -0.144000, 0.000000
F:\Data_NAS\RoutineTest\ZCAM3\GS\data_20200820_0959_1742\info.xml, -4.150000, -4.281000, -4.281000
F:\Data_NAS\RoutineTest\ZCAM3\GS\data_20200820_0959_2991\info.xml, -9.154000, -4.749000, 0.000000
F:\Data_NAS\RoutineTest\ZCAM3\GS\data_20200820_1002_0763\info.xml, -0.342000, -0.459000, 0.000000
F:\Data_NAS\RoutineTest\ZCAM3\GS\data_20200820_1002_2884\info.xml, -2.676000, 0.000000, -2.614000
F:\Data_NAS\RoutineTest\ZCAM3\GS\data_20200820_1004_4876\info.xml, -2.906000, 0.000000, -2.868000
F:\Data_NAS\RoutineTest\ZCAM3\GS\data_20200820_1006_0192\info.xml, -4.804000, -4.849000, 0.000000
F:\Data_NAS\RoutineTest\ZCAM3\GS\data_20200820_1006_1922\info.xml, 2.988000, 2.859000, 2.859000
F:\Data_NAS\RoutineTest\ZCAM3\GS\data_20200820_1006_3294\info.xml, -1.602000, -1.393000, -1.448000
F:\Data_NAS\RoutineTest\ZCAM3\GS\data_20200820_1006_4556\info.xml, -3.202000, -3.507000, -3.507000
F:\Data_NAS\RoutineTest\ZCAM3\GS\data_20200820_1006_5689\info.xml, -4.402000, -4.506000, -4.487000
F:\Data_NAS\RoutineTest\ZCAM3\GS\data_20200820_1007_0789\info.xml, -5.416000, -5.758000, -5.722000
F:\Data_NAS\RoutineTest\ZCAM3\GS\data_20200820_1007_2162\info.xml, -6.864000, 0.000000, -7.019000
F:\Data_NAS\RoutineTest\ZCAM3\GS\data_20200820_1008_0139\info.xml, -5.226000, -3.947000, -3.943000
F:\Data_NAS\RoutineTest\ZCAM3\GS\data_20200820_1008_1291\info.xml, 1.906000, 1.806000, 1.806000
F:\Data_NAS\RoutineTest\ZCAM3\GS\data_20200820_1008_2449\info.xml, -5.608000, -4.983000, 0.000000
F:\Data_NAS\RoutineTest\ZCAM3\GS\data_20200820_1008_3447\info.xml, -5.712000, -5.263000, -5.228000
