case,Master,B0216,B0225
name, spinaxis_Z, spinaxis_Z, spinaxis_Z
F:\Data_NAS\RoutineTest\ZCAM3\GS\data_20200807_1901_2377\info.xml, 0.653671, 0.832127, 0.831598
F:\Data_NAS\RoutineTest\ZCAM3\GS\data_20200807_1901_3979\info.xml, 0.500720, 0.965422, 0.965195
F:\Data_NAS\RoutineTest\ZCAM3\GS\data_20200807_1901_5434\info.xml, 0.925839, 0.953771, 0.953768
F:\Data_NAS\RoutineTest\ZCAM3\GS\data_20200807_1902_1295\info.xml, 0.895903, 0.903618, 0.903695
F:\Data_NAS\RoutineTest\ZCAM3\GS\data_20200807_1902_2881\info.xml, 0.749559, 0.713480, 0.712978
F:\Data_NAS\RoutineTest\ZCAM3\GS\data_20200807_1902_5070\info.xml, 0.646904, 0.753038, 0.753127
F:\Data_NAS\RoutineTest\ZCAM3\GS\data_20200807_1903_1805\info.xml, 0.765907, 0.749124, 0.749008
F:\Data_NAS\RoutineTest\ZCAM3\GS\data_20200807_1903_4108\info.xml, 0.241900, 0.204744, 0.204311
F:\Data_NAS\RoutineTest\ZCAM3\GS\data_20200807_1904_0235\info.xml, 0.170100, 0.168829, 0.168582
F:\Data_NAS\RoutineTest\ZCAM3\GS\data_20200807_1904_2339\info.xml, 0.344809, 0.334710, 0.307962
F:\Data_NAS\RoutineTest\ZCAM3\GS\data_20200807_1904_4661\info.xml, 0.143900, 0.146035, 0.146000
F:\Data_NAS\RoutineTest\ZCAM3\GS\data_20200807_1905_1161\info.xml, 0.293603, 0.287678, 0.287675
F:\Data_NAS\RoutineTest\ZCAM3\GS\data_20200807_1905_3644\info.xml, 0.147832, 0.148320, 0.148622
F:\Data_NAS\RoutineTest\ZCAM3\GS\data_20200807_1906_0077\info.xml, 0.353135, 0.356513, 0.356677
F:\Data_NAS\RoutineTest\ZCAM3\GS\data_20200807_1906_2439\info.xml, 0.274324, 0.257832, 0.257555
F:\Data_NAS\RoutineTest\ZCAM3\GS\data_20200807_1906_4807\info.xml, -0.948713, -0.922258, -0.921915
F:\Data_NAS\RoutineTest\ZCAM3\GS\data_20200807_1907_1257\info.xml, 0.400061, 0.380363, 0.378077
F:\Data_NAS\RoutineTest\ZCAM3\GS\data_20200807_1907_3422\info.xml, 0.194114, 0.196675, 0.196582
F:\Data_NAS\RoutineTest\ZCAM3\GS\data_20200807_1908_0226\info.xml, 0.163049, 0.166493, 0.167050
F:\Data_NAS\RoutineTest\ZCAM3\GS\data_20200807_1908_2537\info.xml, 0.387334, 0.386814, 0.387135
F:\Data_NAS\RoutineTest\ZCAM3\GS\data_20200807_1908_5443\info.xml, 0.237649, 0.289030, 0.289185
F:\Data_NAS\RoutineTest\ZCAM3\GS\data_20200807_1909_1991\info.xml, 0.089515, 0.093520, 0.093517
F:\Data_NAS\RoutineTest\ZCAM3\GS\data_20200807_1909_5653\info.xml, 0.161699, 0.160701, 0.160528
F:\Data_NAS\RoutineTest\ZCAM3\GS\data_20200807_1910_2591\info.xml, 0.528381, 0.494000, 0.493832
F:\Data_NAS\RoutineTest\ZCAM3\GS\data_20200807_1910_4972\info.xml, 0.223429, 0.229197, 0.229219
F:\Data_NAS\RoutineTest\ZCAM3\GS\data_20200811_1653_2348\info.xml, -0.023755, -0.013222, -0.013848
F:\Data_NAS\RoutineTest\ZCAM3\GS\data_20200811_1653_4439\info.xml, 0.281251, 0.233763, 0.233247
F:\Data_NAS\RoutineTest\ZCAM3\GS\data_20200811_1654_0703\info.xml, 0.287361, 0.260300, 0.259906
F:\Data_NAS\RoutineTest\ZCAM3\GS\data_20200811_1654_3061\info.xml, 0.337263, 0.238836, 0.238547
F:\Data_NAS\RoutineTest\ZCAM3\GS\data_20200811_1654_5287\info.xml, 0.402511, 0.353628, 0.353391
F:\Data_NAS\RoutineTest\ZCAM3\GS\data_20200811_1655_1549\info.xml, 0.269622, 0.243482, 0.243149
F:\Data_NAS\RoutineTest\ZCAM3\GS\data_20200811_1655_4588\info.xml, 0.246739, 0.192244, 0.192238
F:\Data_NAS\RoutineTest\ZCAM3\GS\data_20200811_1656_1367\info.xml, 0.412844, 0.399615, 0.399029
F:\Data_NAS\RoutineTest\ZCAM3\GS\data_20200811_1656_3847\info.xml, 0.094210, 0.090299, 0.090348
F:\Data_NAS\RoutineTest\ZCAM3\GS\data_20200811_1657_0259\info.xml, 0.211343, 0.256057, 0.255012
F:\Data_NAS\RoutineTest\ZCAM3\GS\data_20200811_1657_2577\info.xml, 0.290302, 0.271102, 0.271070
F:\Data_NAS\RoutineTest\ZCAM3\GS\data_20200811_1657_5156\info.xml, 0.053198, 0.055764, 0.054445
F:\Data_NAS\RoutineTest\ZCAM3\GS\data_20200811_1658_2688\info.xml, 0.385986, 0.402072, 0.401321
F:\Data_NAS\RoutineTest\ZCAM3\GS\data_20200811_1658_5192\info.xml, 0.353711, 0.325034, 0.324284
F:\Data_NAS\RoutineTest\ZCAM3\GS\data_20200811_1659_1918\info.xml, 0.035182, 0.025991, 0.025566
F:\Data_NAS\RoutineTest\ZCAM3\GS\data_20200811_1659_4573\info.xml, 0.352754, 0.360741, 0.359222
F:\Data_NAS\RoutineTest\ZCAM3\GS\data_20200811_1700_1063\info.xml, 0.099657, 0.114490, 0.114250
F:\Data_NAS\RoutineTest\ZCAM3\GS\data_20200811_1700_3673\info.xml, -0.002716, 0.016890, 0.016607
F:\Data_NAS\RoutineTest\ZCAM3\GS\data_20200811_1701_0866\info.xml, 0.391229, 0.429915, 0.429438
F:\Data_NAS\RoutineTest\ZCAM3\GS\data_20200811_1701_3682\info.xml, 0.364872, 0.389010, 0.388897
F:\Data_NAS\RoutineTest\ZCAM3\GS\data_20200811_1702_0918\info.xml, 0.400661, 0.309460, 0.309315
F:\Data_NAS\RoutineTest\ZCAM3\GS\data_20200811_1702_4294\info.xml, 0.090447, 0.121648, 0.121176
F:\Data_NAS\RoutineTest\ZCAM3\GS\data_20200811_1703_0690\info.xml, 0.224983, 0.232766, 0.232478
F:\Data_NAS\RoutineTest\ZCAM3\GS\data_20200811_1703_3384\info.xml, 0.178804, 0.189574, 0.188690
F:\Data_NAS\RoutineTest\ZCAM3\GS\data_20200811_1707_1348\info.xml, 0.264469, 0.275114, 0.273819
F:\Data_NAS\RoutineTest\ZCAM3\GS\data_20200811_1707_5075\info.xml, -0.009282, 0.000937, 0.000755
F:\Data_NAS\RoutineTest\ZCAM3\GS\data_20200811_1708_2619\info.xml, 0.224828, 0.203885, 0.201581
F:\Data_NAS\RoutineTest\ZCAM3\GS\data_20200811_1708_5158\info.xml, 0.101740, 0.104301, 0.104113
F:\Data_NAS\RoutineTest\ZCAM3\GS\data_20200811_1709_2906\info.xml, -0.019387, 0.017380, 0.017229
F:\Data_NAS\RoutineTest\ZCAM3\GS\data_20200811_1710_3210\info.xml, -0.066857, -0.090785, -0.091342
F:\Data_NAS\RoutineTest\ZCAM3\GS\data_20200811_1711_0962\info.xml, 0.103976, 0.111508, 0.110585
F:\Data_NAS\RoutineTest\ZCAM3\GS\data_20200811_1712_3478\info.xml, 0.026316, -0.002241, -0.002419
F:\Data_NAS\RoutineTest\ZCAM3\GS\data_20200811_1713_0285\info.xml, 0.263147, 0.270128, 0.270396
F:\Data_NAS\RoutineTest\ZCAM3\GS\data_20200811_1713_1670\info.xml, -0.032141, -0.026111, -0.026335
F:\Data_NAS\RoutineTest\ZCAM3\GS\data_20200811_1713_5118\info.xml, -0.183560, -0.213354, -0.213353
F:\Data_NAS\RoutineTest\ZCAM3\GS\data_20200811_1714_2889\info.xml, 0.145434, 0.142136, 0.103775
F:\Data_NAS\RoutineTest\ZCAM3\GS\data_20200811_1714_4764\info.xml, -0.106798, -0.128515, -0.128583
F:\Data_NAS\RoutineTest\ZCAM3\GS\data_20200811_1721_0068\info.xml, 0.172320, 0.183097, 0.183084
F:\Data_NAS\RoutineTest\ZCAM3\GS\data_20200811_1722_4688\info.xml, 0.090105, 0.091288, 0.090985
F:\Data_NAS\RoutineTest\ZCAM3\GS\data_20200811_1723_1080\info.xml, -0.098038, -0.119137, -0.119064
F:\Data_NAS\RoutineTest\ZCAM3\GS\data_20200811_1723_3607\info.xml, 0.404088, 0.428760, 0.426728
F:\Data_NAS\RoutineTest\ZCAM3\GS\data_20200811_1723_5932\info.xml, -0.164508, -0.161202, -0.164324
F:\Data_NAS\RoutineTest\ZCAM3\GS\data_20200811_1724_1504\info.xml, 0.159908, 0.134356, 0.133085
F:\Data_NAS\RoutineTest\ZCAM3\GS\data_20200811_1724_3868\info.xml, -0.040772, -0.051549, -0.051745
F:\Data_NAS\RoutineTest\ZCAM3\GS\data_20200811_1725_0186\info.xml, 0.485016, 0.609013, 0.608366
F:\Data_NAS\RoutineTest\ZCAM3\GS\data_20200811_1725_3683\info.xml, 0.233120, 0.248499, 0.248304
F:\Data_NAS\RoutineTest\ZCAM3\GS\data_20200811_1725_5320\info.xml, -0.069302, -0.068658, -0.068652
F:\Data_NAS\RoutineTest\ZCAM3\GS\data_20200811_1726_1647\info.xml, -0.159281, -0.145483, -0.145628
F:\Data_NAS\RoutineTest\ZCAM3\GS\data_20200811_1726_3574\info.xml, -0.002003, -0.038135, -0.038196
F:\Data_NAS\RoutineTest\ZCAM3\GS\data_20200811_1727_0625\info.xml, -0.194932, -0.229302, -0.229468
F:\Data_NAS\RoutineTest\ZCAM3\GS\data_20200811_1727_4199\info.xml, -0.114183, -0.127566, -0.127601
F:\Data_NAS\RoutineTest\ZCAM3\GS\data_20200811_1728_2529\info.xml, 0.115884, 0.129348, 0.129330
F:\Data_NAS\RoutineTest\ZCAM3\GS\data_20200811_1728_5786\info.xml, -0.014381, -0.002660, -0.002803
F:\Data_NAS\RoutineTest\ZCAM3\GS\data_20200811_1729_3890\info.xml, -0.127252, -0.126277, -0.126101
F:\Data_NAS\RoutineTest\ZCAM3\GS\data_20200811_1731_1709\info.xml, -0.077180, -0.129930, -0.129730
F:\Data_NAS\RoutineTest\ZCAM3\GS\data_20200811_1731_4460\info.xml, -0.295090, -0.343618, -0.343639
F:\Data_NAS\RoutineTest\ZCAM3\GS\data_20200811_1731_5755\info.xml, -0.224056, -0.220580, -0.220592
F:\Data_NAS\RoutineTest\ZCAM3\GS\data_20200811_1732_5109\info.xml, -0.280472, -0.275569, -0.275319
F:\Data_NAS\RoutineTest\ZCAM3\GS\data_20200814_1514_4490\info.xml, -0.064297, -0.112756, -0.112763
F:\Data_NAS\RoutineTest\ZCAM3\GS\data_20200814_1515_1844\info.xml, 0.021033, -0.005770, -0.005724
F:\Data_NAS\RoutineTest\ZCAM3\GS\data_20200814_1515_3715\info.xml, -0.066350, -0.021970, -0.021953
F:\Data_NAS\RoutineTest\ZCAM3\GS\data_20200814_1515_5643\info.xml, 0.172787, 0.147959, 0.147556
F:\Data_NAS\RoutineTest\ZCAM3\GS\data_20200814_1516_4854\info.xml, -0.080337, -0.059393, -0.059300
F:\Data_NAS\RoutineTest\ZCAM3\GS\data_20200814_1517_0532\info.xml, -0.023900, -0.011623, -0.011876
F:\Data_NAS\RoutineTest\ZCAM3\GS\data_20200814_1517_2709\info.xml, 0.130820, 0.141110, 0.141568
F:\Data_NAS\RoutineTest\ZCAM3\GS\data_20200814_1517_4328\info.xml, 0.185903, 0.160468, 0.160259
F:\Data_NAS\RoutineTest\ZCAM3\GS\data_20200814_1518_0397\info.xml, -0.087284, -0.054306, -0.054346
F:\Data_NAS\RoutineTest\ZCAM3\GS\data_20200814_1519_3934\info.xml, 0.055697, 0.085681, 0.085880
F:\Data_NAS\RoutineTest\ZCAM3\GS\data_20200814_1519_5871\info.xml, -0.073789, -0.056407, -0.056681
F:\Data_NAS\RoutineTest\ZCAM3\GS\data_20200814_1520_1881\info.xml, -0.002879, -0.009836, -0.009913
F:\Data_NAS\RoutineTest\ZCAM3\GS\data_20200814_1520_3582\info.xml, 0.035527, -0.030911, -0.031150
F:\Data_NAS\RoutineTest\ZCAM3\GS\data_20200814_1520_5310\info.xml, -0.054026, -0.055913, -0.055903
F:\Data_NAS\RoutineTest\ZCAM3\GS\data_20200814_1521_1181\info.xml, 0.065521, 0.035683, 0.042686
F:\Data_NAS\RoutineTest\ZCAM3\GS\data_20200814_1521_2880\info.xml, 0.065054, 0.111956, 0.111849
F:\Data_NAS\RoutineTest\ZCAM3\GS\data_20200820_0731_1010\info.xml, 0.000000, -0.144312, -0.144366
F:\Data_NAS\RoutineTest\ZCAM3\GS\data_20200820_0731_2176\info.xml, 0.907194, 0.917007, 0.904105
F:\Data_NAS\RoutineTest\ZCAM3\GS\data_20200820_0731_3673\info.xml, 0.688400, 0.651604, 0.650980
F:\Data_NAS\RoutineTest\ZCAM3\GS\data_20200820_0731_4768\info.xml, 0.941366, 0.979639, 0.979650
F:\Data_NAS\RoutineTest\ZCAM3\GS\data_20200820_0732_1194\info.xml, 0.351584, 0.303770, 0.305265
F:\Data_NAS\RoutineTest\ZCAM3\GS\data_20200820_0732_2605\info.xml, -0.242536, -0.242536, -0.242536
F:\Data_NAS\RoutineTest\ZCAM3\GS\data_20200820_0732_4337\info.xml, -0.444002, -0.285852, -0.286509
F:\Data_NAS\RoutineTest\ZCAM3\GS\data_20200820_0733_4803\info.xml, -0.913201, 0.000000, -0.358719
F:\Data_NAS\RoutineTest\ZCAM3\GS\data_20200820_0734_1424\info.xml, -0.537013, -0.106840, -0.105482
F:\Data_NAS\RoutineTest\ZCAM3\GS\data_20200820_0734_5403\info.xml, -0.242536, 0.093824, 0.094395
F:\Data_NAS\RoutineTest\ZCAM3\GS\data_20200820_0735_1606\info.xml, -0.892723, -0.478054, -0.486003
F:\Data_NAS\RoutineTest\ZCAM3\GS\data_20200820_0735_3451\info.xml, -0.205947, -0.347077, -0.347497
F:\Data_NAS\RoutineTest\ZCAM3\GS\data_20200820_0735_5328\info.xml, -0.368522, 0.000000, -0.236834
F:\Data_NAS\RoutineTest\ZCAM3\GS\data_20200820_0736_0801\info.xml, 0.991581, 0.999527, 0.999552
F:\Data_NAS\RoutineTest\ZCAM3\GS\data_20200820_0736_2048\info.xml, -0.551578, -0.520378, -0.521769
F:\Data_NAS\RoutineTest\ZCAM3\GS\data_20200820_0736_4119\info.xml, -0.242536, -0.242536, -0.242536
F:\Data_NAS\RoutineTest\ZCAM3\GS\data_20200820_0737_0341\info.xml, 0.728246, -0.479547, -0.478302
F:\Data_NAS\RoutineTest\ZCAM3\GS\data_20200820_0737_2573\info.xml, -0.167009, -0.091040, -0.091170
F:\Data_NAS\RoutineTest\ZCAM3\GS\data_20200820_0738_0107\info.xml, -0.291664, -0.446855, -0.446388
F:\Data_NAS\RoutineTest\ZCAM3\GS\data_20200820_0738_2150\info.xml, -0.622288, -0.560192, -0.561877
F:\Data_NAS\RoutineTest\ZCAM3\GS\data_20200820_0738_4019\info.xml, 0.490891, -0.435127, -0.435999
F:\Data_NAS\RoutineTest\ZCAM3\GS\data_20200820_0739_2233\info.xml, -0.250589, -0.385107, -0.383799
F:\Data_NAS\RoutineTest\ZCAM3\GS\data_20200820_0739_4657\info.xml, -0.571639, -0.633930, -0.632616
F:\Data_NAS\RoutineTest\ZCAM3\GS\data_20200820_0740_0843\info.xml, 0.718623, 0.000000, 0.845662
F:\Data_NAS\RoutineTest\ZCAM3\GS\data_20200820_0741_0771\info.xml, 0.317442, -0.242536, -0.242536
F:\Data_NAS\RoutineTest\ZCAM3\GS\data_20200820_0741_5548\info.xml, -0.542911, -0.242536, 0.000000
F:\Data_NAS\RoutineTest\ZCAM3\GS\data_20200820_0742_1725\info.xml, 0.212872, 0.007391, 0.007320
F:\Data_NAS\RoutineTest\ZCAM3\GS\data_20200820_0743_1478\info.xml, 0.000000, -0.074479, 0.000000
F:\Data_NAS\RoutineTest\ZCAM3\GS\data_20200820_0743_3350\info.xml, 0.000000, -0.242536, 0.000000
F:\Data_NAS\RoutineTest\ZCAM3\GS\data_20200820_0744_0245\info.xml, 0.000000, -0.041961, -0.041747
F:\Data_NAS\RoutineTest\ZCAM3\GS\data_20200820_0745_0148\info.xml, -0.321655, -0.289762, -0.289678
F:\Data_NAS\RoutineTest\ZCAM3\GS\data_20200820_0745_3938\info.xml, -0.447443, -0.374346, -0.374625
F:\Data_NAS\RoutineTest\ZCAM3\GS\data_20200820_0746_3901\info.xml, 0.000000, -0.095549, -0.095533
F:\Data_NAS\RoutineTest\ZCAM3\GS\data_20200820_0748_4066\info.xml, 0.000000, 0.000000, -0.474989
F:\Data_NAS\RoutineTest\ZCAM3\GS\data_20200820_0749_2882\info.xml, -0.316086, 0.000000, -0.308254
F:\Data_NAS\RoutineTest\ZCAM3\GS\data_20200820_0750_0530\info.xml, -0.160093, -0.214592, -0.221333
F:\Data_NAS\RoutineTest\ZCAM3\GS\data_20200820_0750_4604\info.xml, -0.497349, 0.000000, 0.045002
F:\Data_NAS\RoutineTest\ZCAM3\GS\data_20200820_0751_1874\info.xml, 0.263141, 0.235355, 0.235435
F:\Data_NAS\RoutineTest\ZCAM3\GS\data_20200820_0752_0685\info.xml, 0.000000, -0.301470, -0.303166
F:\Data_NAS\RoutineTest\ZCAM3\GS\data_20200820_0752_5327\info.xml, -0.476283, 0.000000, 0.203164
F:\Data_NAS\RoutineTest\ZCAM3\GS\data_20200820_0753_1357\info.xml, -0.109779, -0.169565, 0.000000
F:\Data_NAS\RoutineTest\ZCAM3\GS\data_20200820_0753_2910\info.xml, 0.000000, 0.000000, 0.000000
F:\Data_NAS\RoutineTest\ZCAM3\GS\data_20200820_0753_4250\info.xml, 0.000000, 0.000000, 0.000000
F:\Data_NAS\RoutineTest\ZCAM3\GS\data_20200820_0753_5592\info.xml, 0.000000, -0.242536, -0.242536
F:\Data_NAS\RoutineTest\ZCAM3\GS\data_20200820_0754_0877\info.xml, -0.552438, 0.000000, -0.438918
F:\Data_NAS\RoutineTest\ZCAM3\GS\data_20200820_0754_5088\info.xml, -0.194714, -0.201647, -0.202101
F:\Data_NAS\RoutineTest\ZCAM3\GS\data_20200820_0755_0310\info.xml, 0.065686, 0.024789, 0.021625
F:\Data_NAS\RoutineTest\ZCAM3\GS\data_20200820_0755_1891\info.xml, -0.240799, -0.120814, -0.120891
F:\Data_NAS\RoutineTest\ZCAM3\GS\data_20200820_0755_3884\info.xml, -0.174298, -0.106041, -0.105841
F:\Data_NAS\RoutineTest\ZCAM3\GS\data_20200820_0755_5367\info.xml, 0.118154, 0.117430, 0.117407
F:\Data_NAS\RoutineTest\ZCAM3\GS\data_20200820_0756_0642\info.xml, 0.062115, -0.030137, -0.030229
F:\Data_NAS\RoutineTest\ZCAM3\GS\data_20200820_0758_2268\info.xml, -0.802915, -0.192872, -0.192697
F:\Data_NAS\RoutineTest\ZCAM3\GS\data_20200820_0758_3531\info.xml, -0.073844, 0.000000, -0.101136
F:\Data_NAS\RoutineTest\ZCAM3\GS\data_20200820_0758_4745\info.xml, 0.475328, -0.326798, 0.000000
F:\Data_NAS\RoutineTest\ZCAM3\GS\data_20200820_0758_5972\info.xml, -0.242536, -0.340367, -0.340550
F:\Data_NAS\RoutineTest\ZCAM3\GS\data_20200820_0759_1171\info.xml, -0.001868, 0.000000, 0.089806
F:\Data_NAS\RoutineTest\ZCAM3\GS\data_20200820_0759_3607\info.xml, -0.242536, 0.000000, -0.056895
F:\Data_NAS\RoutineTest\ZCAM3\GS\data_20200820_0759_5503\info.xml, -0.644823, -0.203373, -0.203289
F:\Data_NAS\RoutineTest\ZCAM3\GS\data_20200820_0800_0806\info.xml, 0.883415, 0.243846, 0.801072
F:\Data_NAS\RoutineTest\ZCAM3\GS\data_20200820_0800_4980\info.xml, -0.393789, -0.301574, -0.301110
F:\Data_NAS\RoutineTest\ZCAM3\GS\data_20200820_0801_1381\info.xml, -0.394913, -0.149603, -0.149320
F:\Data_NAS\RoutineTest\ZCAM3\GS\data_20200820_0801_3534\info.xml, 0.154498, 0.088498, 0.087437
F:\Data_NAS\RoutineTest\ZCAM3\GS\data_20200820_0801_5061\info.xml, -0.413728, -0.443308, -0.443373
F:\Data_NAS\RoutineTest\ZCAM3\GS\data_20200820_0802_1501\info.xml, 0.350763, -0.278542, 0.000000
F:\Data_NAS\RoutineTest\ZCAM3\GS\data_20200820_0802_3808\info.xml, -0.712309, 0.000000, -0.485775
F:\Data_NAS\RoutineTest\ZCAM3\GS\data_20200820_0802_5777\info.xml, -0.605508, -0.431964, -0.431932
F:\Data_NAS\RoutineTest\ZCAM3\GS\data_20200820_0803_1405\info.xml, -0.533694, -0.182932, -0.183559
F:\Data_NAS\RoutineTest\ZCAM3\GS\data_20200820_0803_4888\info.xml, 0.544980, -0.200209, -0.199473
F:\Data_NAS\RoutineTest\ZCAM3\GS\data_20200820_0804_1294\info.xml, 0.088804, -0.509026, -0.545151
F:\Data_NAS\RoutineTest\ZCAM3\GS\data_20200820_0908_5172\info.xml, -0.578495, -0.612254, -0.612259
F:\Data_NAS\RoutineTest\ZCAM3\GS\data_20200820_0909_0564\info.xml, 0.996434, 0.999045, 0.994614
F:\Data_NAS\RoutineTest\ZCAM3\GS\data_20200820_0909_2695\info.xml, 0.000000, 0.984333, 0.000000
F:\Data_NAS\RoutineTest\ZCAM3\GS\data_20200820_0910_1778\info.xml, 0.133231, 0.040618, 0.041289
F:\Data_NAS\RoutineTest\ZCAM3\GS\data_20200820_0910_3744\info.xml, 0.909322, 0.754430, 0.754655
F:\Data_NAS\RoutineTest\ZCAM3\GS\data_20200820_0910_5320\info.xml, 0.536525, 0.713028, 0.653440
F:\Data_NAS\RoutineTest\ZCAM3\GS\data_20200820_0911_0916\info.xml, -0.711692, 0.076693, 0.079992
F:\Data_NAS\RoutineTest\ZCAM3\GS\data_20200820_0911_4632\info.xml, -0.257402, 0.095317, 0.095356
F:\Data_NAS\RoutineTest\ZCAM3\GS\data_20200820_0912_1313\info.xml, -0.247557, -0.382368, -0.382085
F:\Data_NAS\RoutineTest\ZCAM3\GS\data_20200820_0912_3534\info.xml, -0.338415, -0.190005, -0.189847
F:\Data_NAS\RoutineTest\ZCAM3\GS\data_20200820_0913_1105\info.xml, -0.038702, -0.110096, -0.110012
F:\Data_NAS\RoutineTest\ZCAM3\GS\data_20200820_0913_4836\info.xml, 0.000000, 0.100342, 0.103577
F:\Data_NAS\RoutineTest\ZCAM3\GS\data_20200820_0914_4521\info.xml, 0.292159, 0.269445, 0.269284
F:\Data_NAS\RoutineTest\ZCAM3\GS\data_20200820_0915_0678\info.xml, -0.242536, -0.542247, -0.542015
F:\Data_NAS\RoutineTest\ZCAM3\GS\data_20200820_0915_3438\info.xml, 0.219467, 0.035374, 0.033462
F:\Data_NAS\RoutineTest\ZCAM3\GS\data_20200820_0916_0902\info.xml, 0.357320, 0.211165, 0.210890
F:\Data_NAS\RoutineTest\ZCAM3\GS\data_20200820_0916_2772\info.xml, 0.931858, 0.937879, 0.937891
F:\Data_NAS\RoutineTest\ZCAM3\GS\data_20200820_0916_5234\info.xml, 0.500835, 0.569293, 0.568067
F:\Data_NAS\RoutineTest\ZCAM3\GS\data_20200820_0917_0655\info.xml, -0.216766, 0.000000, -0.412817
F:\Data_NAS\RoutineTest\ZCAM3\GS\data_20200820_0917_2487\info.xml, -0.402309, -0.418909, -0.419026
F:\Data_NAS\RoutineTest\ZCAM3\GS\data_20200820_0918_1931\info.xml, 0.156726, 0.213857, 0.214026
F:\Data_NAS\RoutineTest\ZCAM3\GS\data_20200820_0918_3983\info.xml, 0.236682, 0.135838, 0.135864
F:\Data_NAS\RoutineTest\ZCAM3\GS\data_20200820_0920_0556\info.xml, 0.118412, 0.126396, 0.000000
F:\Data_NAS\RoutineTest\ZCAM3\GS\data_20200820_0921_1181\info.xml, -0.148526, -0.138255, -0.138391
F:\Data_NAS\RoutineTest\ZCAM3\GS\data_20200820_0921_4437\info.xml, 0.297755, 0.000000, -0.108736
F:\Data_NAS\RoutineTest\ZCAM3\GS\data_20200820_0922_0727\info.xml, -0.242536, 0.033792, 0.078954
F:\Data_NAS\RoutineTest\ZCAM3\GS\data_20200820_0922_5446\info.xml, -0.242536, 0.294174, 0.330342
F:\Data_NAS\RoutineTest\ZCAM3\GS\data_20200820_0923_2449\info.xml, 0.123317, 0.250871, 0.251893
F:\Data_NAS\RoutineTest\ZCAM3\GS\data_20200820_0923_5184\info.xml, 0.515302, 0.000000, -0.242536
F:\Data_NAS\RoutineTest\ZCAM3\GS\data_20200820_0924_4008\info.xml, 0.190522, 0.197267, 0.195701
F:\Data_NAS\RoutineTest\ZCAM3\GS\data_20200820_0925_1032\info.xml, 0.000000, -0.289848, 0.000000
F:\Data_NAS\RoutineTest\ZCAM3\GS\data_20200820_0925_2890\info.xml, 0.156832, 0.003494, 0.003629
F:\Data_NAS\RoutineTest\ZCAM3\GS\data_20200820_0925_5507\info.xml, 0.320376, 0.248112, 0.000000
F:\Data_NAS\RoutineTest\ZCAM3\GS\data_20200820_0926_5640\info.xml, 0.696358, 0.392570, 0.392052
F:\Data_NAS\RoutineTest\ZCAM3\GS\data_20200820_0927_1919\info.xml, -0.124010, -0.117856, -0.117721
F:\Data_NAS\RoutineTest\ZCAM3\GS\data_20200820_0927_4067\info.xml, 0.260042, 0.000000, 0.228497
F:\Data_NAS\RoutineTest\ZCAM3\GS\data_20200820_0928_0232\info.xml, 0.189202, 0.137561, 0.140602
F:\Data_NAS\RoutineTest\ZCAM3\GS\data_20200820_0928_3282\info.xml, -0.242536, -0.179377, -0.179225
F:\Data_NAS\RoutineTest\ZCAM3\GS\data_20200820_0930_1079\info.xml, -0.242536, 0.236305, 0.231805
F:\Data_NAS\RoutineTest\ZCAM3\GS\data_20200820_0930_2742\info.xml, 0.014552, 0.232698, 0.232684
F:\Data_NAS\RoutineTest\ZCAM3\GS\data_20200820_0930_4322\info.xml, 0.461996, 0.426379, 0.428467
F:\Data_NAS\RoutineTest\ZCAM3\GS\data_20200820_0931_1211\info.xml, 0.419246, 0.000000, 0.314082
F:\Data_NAS\RoutineTest\ZCAM3\GS\data_20200820_0931_3045\info.xml, -0.242536, -0.113361, -0.103838
F:\Data_NAS\RoutineTest\ZCAM3\GS\data_20200820_0931_4839\info.xml, 0.960610, 0.737193, 0.737072
F:\Data_NAS\RoutineTest\ZCAM3\GS\data_20200820_0932_1467\info.xml, 0.363538, 0.291312, 0.290228
F:\Data_NAS\RoutineTest\ZCAM3\GS\data_20200820_0932_3216\info.xml, 0.556825, 0.797333, 0.796565
F:\Data_NAS\RoutineTest\ZCAM3\GS\data_20200820_0932_5497\info.xml, -0.242536, 0.200012, 0.200434
F:\Data_NAS\RoutineTest\ZCAM3\GS\data_20200820_0933_1756\info.xml, 0.322035, 0.100765, 0.101354
F:\Data_NAS\RoutineTest\ZCAM3\GS\data_20200820_0933_3656\info.xml, 0.299011, 0.102651, 0.103657
F:\Data_NAS\RoutineTest\ZCAM3\GS\data_20200820_0934_0697\info.xml, -0.509494, 0.186204, 0.136726
F:\Data_NAS\RoutineTest\ZCAM3\GS\data_20200820_0934_3049\info.xml, 0.000000, 0.000000, 0.000000
F:\Data_NAS\RoutineTest\ZCAM3\GS\data_20200820_0934_4964\info.xml, 0.145079, 0.015536, 0.015602
F:\Data_NAS\RoutineTest\ZCAM3\GS\data_20200820_0935_1220\info.xml, 0.650160, 0.502075, 0.505241
F:\Data_NAS\RoutineTest\ZCAM3\GS\data_20200820_0936_4249\info.xml, 0.397097, 0.412256, 0.414063
F:\Data_NAS\RoutineTest\ZCAM3\GS\data_20200820_0937_4668\info.xml, -0.242536, 0.242279, 0.243152
F:\Data_NAS\RoutineTest\ZCAM3\GS\data_20200820_0938_0954\info.xml, 0.000000, -0.242536, -0.242536
F:\Data_NAS\RoutineTest\ZCAM3\GS\data_20200820_0938_2896\info.xml, 0.455766, -0.205024, -0.056410
F:\Data_NAS\RoutineTest\ZCAM3\GS\data_20200820_0938_5453\info.xml, 0.100626, 0.807556, 0.807611
F:\Data_NAS\RoutineTest\ZCAM3\GS\data_20200820_0939_1254\info.xml, -0.242536, -0.001715, -0.001361
F:\Data_NAS\RoutineTest\ZCAM3\GS\data_20200820_0939_3574\info.xml, 0.282818, 0.405697, 0.405616
F:\Data_NAS\RoutineTest\ZCAM3\GS\data_20200820_0940_0340\info.xml, 0.467678, 0.228400, 0.196211
F:\Data_NAS\RoutineTest\ZCAM3\GS\data_20200820_0940_3221\info.xml, 0.203203, -0.155880, -0.155864
F:\Data_NAS\RoutineTest\ZCAM3\GS\data_20200820_0940_5313\info.xml, 0.272626, 0.338867, 0.338640
F:\Data_NAS\RoutineTest\ZCAM3\GS\data_20200820_0941_4023\info.xml, 0.176364, 0.250578, 0.250750
F:\Data_NAS\RoutineTest\ZCAM3\GS\data_20200820_0942_0638\info.xml, 0.627145, 0.000000, 0.522801
F:\Data_NAS\RoutineTest\ZCAM3\GS\data_20200820_0942_2558\info.xml, 0.032758, 0.312580, 0.312710
F:\Data_NAS\RoutineTest\ZCAM3\GS\data_20200820_0942_5576\info.xml, -0.242536, 0.024460, 0.026189
F:\Data_NAS\RoutineTest\ZCAM3\GS\data_20200820_0944_2168\info.xml, 0.605625, 0.000000, 0.000000
F:\Data_NAS\RoutineTest\ZCAM3\GS\data_20200820_0944_4496\info.xml, -0.362464, 0.149829, 0.150893
F:\Data_NAS\RoutineTest\ZCAM3\GS\data_20200820_0945_0181\info.xml, 0.347627, 0.000000, -0.017235
F:\Data_NAS\RoutineTest\ZCAM3\GS\data_20200820_0945_2763\info.xml, -0.250536, -0.098705, -0.097833
F:\Data_NAS\RoutineTest\ZCAM3\GS\data_20200820_0945_4823\info.xml, -0.445624, -0.097222, -0.096631
F:\Data_NAS\RoutineTest\ZCAM3\GS\data_20200820_0946_0342\info.xml, 0.070859, -0.202214, -0.202452
F:\Data_NAS\RoutineTest\ZCAM3\GS\data_20200820_0946_1845\info.xml, -0.468933, -0.178087, -0.179432
F:\Data_NAS\RoutineTest\ZCAM3\GS\data_20200820_0948_3393\info.xml, 0.000000, 0.008449, 0.001471
F:\Data_NAS\RoutineTest\ZCAM3\GS\data_20200820_0948_5145\info.xml, -0.377721, -0.364235, -0.364513
F:\Data_NAS\RoutineTest\ZCAM3\GS\data_20200820_0949_0947\info.xml, 0.467639, 0.510640, 0.509071
F:\Data_NAS\RoutineTest\ZCAM3\GS\data_20200820_0949_5023\info.xml, 0.000000, 0.000000, 0.000000
F:\Data_NAS\RoutineTest\ZCAM3\GS\data_20200820_0950_1133\info.xml, 0.000000, 0.000000, -0.030636
F:\Data_NAS\RoutineTest\ZCAM3\GS\data_20200820_0950_3095\info.xml, -0.344449, -0.335671, -0.335617
F:\Data_NAS\RoutineTest\ZCAM3\GS\data_20200820_0954_2197\info.xml, -0.021594, -0.077794, -0.077873
F:\Data_NAS\RoutineTest\ZCAM3\GS\data_20200820_0955_0418\info.xml, -0.242536, -0.242536, -0.242536
F:\Data_NAS\RoutineTest\ZCAM3\GS\data_20200820_0955_2457\info.xml, 0.968403, 0.956182, 0.956084
F:\Data_NAS\RoutineTest\ZCAM3\GS\data_20200820_0955_3733\info.xml, 0.991914, 0.995149, 0.995186
F:\Data_NAS\RoutineTest\ZCAM3\GS\data_20200820_0955_5542\info.xml, 0.984471, 0.985955, 0.985977
F:\Data_NAS\RoutineTest\ZCAM3\GS\data_20200820_0956_1144\info.xml, 0.652034, -0.427622, -0.425819
F:\Data_NAS\RoutineTest\ZCAM3\GS\data_20200820_0956_3798\info.xml, 0.701942, -0.172115, -0.172484
F:\Data_NAS\RoutineTest\ZCAM3\GS\data_20200820_0956_5408\info.xml, -0.506494, -0.236779, -0.237436
F:\Data_NAS\RoutineTest\ZCAM3\GS\data_20200820_0957_1158\info.xml, 0.232814, 0.023898, 0.030988
F:\Data_NAS\RoutineTest\ZCAM3\GS\data_20200820_0957_3909\info.xml, -0.726842, -0.507874, -0.507096
F:\Data_NAS\RoutineTest\ZCAM3\GS\data_20200820_0957_5784\info.xml, 0.000000, -0.136279, 0.000000
F:\Data_NAS\RoutineTest\ZCAM3\GS\data_20200820_0958_1274\info.xml, 0.983265, 0.958123, 0.958022
F:\Data_NAS\RoutineTest\ZCAM3\GS\data_20200820_0958_3202\info.xml, -0.364301, -0.316974, -0.316592
F:\Data_NAS\RoutineTest\ZCAM3\GS\data_20200820_0958_5034\info.xml, 0.958952, 0.861630, 0.861768
F:\Data_NAS\RoutineTest\ZCAM3\GS\data_20200820_0959_0451\info.xml, 0.237535, 0.201873, 0.000000
F:\Data_NAS\RoutineTest\ZCAM3\GS\data_20200820_0959_1742\info.xml, -0.308004, 0.256130, 0.256053
F:\Data_NAS\RoutineTest\ZCAM3\GS\data_20200820_0959_2991\info.xml, 0.867146, 0.149728, 0.000000
F:\Data_NAS\RoutineTest\ZCAM3\GS\data_20200820_1002_0763\info.xml, 0.193566, -0.075324, 0.000000
F:\Data_NAS\RoutineTest\ZCAM3\GS\data_20200820_1002_2884\info.xml, 0.859012, 0.000000, 0.967770
F:\Data_NAS\RoutineTest\ZCAM3\GS\data_20200820_1004_4876\info.xml, 0.292787, 0.000000, 0.156864
F:\Data_NAS\RoutineTest\ZCAM3\GS\data_20200820_1006_0192\info.xml, 0.977817, 0.595055, 0.000000
F:\Data_NAS\RoutineTest\ZCAM3\GS\data_20200820_1006_1922\info.xml, 0.653694, 0.699472, 0.699740
F:\Data_NAS\RoutineTest\ZCAM3\GS\data_20200820_1006_3294\info.xml, 0.982887, 0.871316, 0.871379
F:\Data_NAS\RoutineTest\ZCAM3\GS\data_20200820_1006_4556\info.xml, -0.168202, -0.172765, -0.165590
F:\Data_NAS\RoutineTest\ZCAM3\GS\data_20200820_1006_5689\info.xml, -0.327548, -0.242119, -0.242148
F:\Data_NAS\RoutineTest\ZCAM3\GS\data_20200820_1007_0789\info.xml, 0.304062, 0.197180, 0.197089
F:\Data_NAS\RoutineTest\ZCAM3\GS\data_20200820_1007_2162\info.xml, -0.242536, 0.000000, -0.161291
F:\Data_NAS\RoutineTest\ZCAM3\GS\data_20200820_1008_0139\info.xml, -0.663691, -0.251922, -0.252630
F:\Data_NAS\RoutineTest\ZCAM3\GS\data_20200820_1008_1291\info.xml, -0.242536, -0.224706, -0.224628
F:\Data_NAS\RoutineTest\ZCAM3\GS\data_20200820_1008_2449\info.xml, 0.063127, -0.067651, 0.000000
F:\Data_NAS\RoutineTest\ZCAM3\GS\data_20200820_1008_3447\info.xml, -0.027831, -0.171370, -0.170621
